{
  "type": "Pda",
  "states": [
    {
      "name": "q0",
      "x": 59,
      "y": 152
    },
    {
      "name": "q1",
      "x": 244,
      "y": 145
    },
    {
      "name": "qf",
      "x": 476,
      "y": 140
    }
  ],
  "finishStates": [
    "qf"
  ],
  "symbols": [
    "0",
    "1"
  ],
  "stackSymbols": [
    "0",
    "1"
  ],
  "mode": "fs",
  "startState": "q0",
  "rules": [
    {
      "aState": "q0",
      "nState": "q0",
      "symbol": "0",
      "stackSymbol": "eps",
      "toPush": [
        "0"
      ],
      "vertices": [
        {
          "x": 59,
          "y": 92
        },
        {
          "x": 119,
          "y": 92
        }
      ]
    },
    {
      "aState": "q0",
      "nState": "q1",
      "symbol": "eps",
      "stackSymbol": "eps",
      "toPush": [
        "eps"
      ],
      "vertices": []
    },
    {
      "aState": "q1",
      "nState": "q1",
      "symbol": "0",
      "stackSymbol": "0",
      "toPush": [
        "eps"
      ],
      "vertices": [
        {
          "x": 244,
          "y": 85
        },
        {
          "x": 304,
          "y": 85
        }
      ]
    },
    {
      "aState": "q1",
      "nState": "qf",
      "symbol": "eps",
      "stackSymbol": "#",
      "toPush": [
        "#"
      ],
      "vertices": []
    },
    {
      "aState": "q0",
      "nState": "q0",
      "symbol": "1",
      "stackSymbol": "eps",
      "toPush": [
        "1"
      ],
      "vertices": [
        {
          "x": 59,
          "y": 92
        },
        {
          "x": 119,
          "y": 92
        }
      ]
    },
    {
      "aState": "q1",
      "nState": "q1",
      "symbol": "1",
      "stackSymbol": "1",
      "toPush": [
        "eps"
      ],
      "vertices": [
        {
          "x": 244,
          "y": 85
        },
        {
          "x": 304,
          "y": 85
        }
      ]
    }
  ]
}