{
  "type": "Tm",
  "states": [
    {
      "name": "q1",
      "x": 540,
      "y": 95
    },
    {
      "name": "q2",
      "x": 326,
      "y": 73
    },
    {
      "name": "s0",
      "x": 310,
      "y": 302
    },
    {
      "name": "s1",
      "x": 503,
      "y": 314
    },
    {
      "name": "A0",
      "x": 67,
      "y": 87
    },
    {
      "name": "G0",
      "x": 143,
      "y": 326
    },
    {
      "name": "H",
      "x": 21,
      "y": 187
    }
  ],
  "finishStates": [
    "H"
  ],
  "symbols": [
    "#",
    "0",
    "1",
    "i",
    "x"
  ],
  "startState": "A0",
  "rules": [
    {
      "aState": "q1",
      "readSymbol": "",
      "nState": "q2",
      "writeSymbol": "1",
      "move": 1,
      "vertices": []
    },
    {
      "aState": "q1",
      "readSymbol": "1",
      "nState": "q1",
      "writeSymbol": "0",
      "move": -1,
      "vertices": [
        {
          "x": 544,
          "y": 37
        },
        {
          "x": 606,
          "y": 28
        }
      ]
    },
    {
      "aState": "q1",
      "readSymbol": "0",
      "nState": "q2",
      "writeSymbol": "1",
      "move": 1,
      "vertices": []
    },
    {
      "aState": "s0",
      "readSymbol": "x",
      "nState": "s0",
      "writeSymbol": "x",
      "move": 1,
      "vertices": [
        {
          "x": 366,
          "y": 247
        },
        {
          "x": 413,
          "y": 284
        }
      ]
    },
    {
      "aState": "s0",
      "readSymbol": "i",
      "nState": "s1",
      "writeSymbol": "x",
      "move": -1,
      "vertices": []
    },
    {
      "aState": "s1",
      "readSymbol": "x",
      "nState": "s1",
      "writeSymbol": "x",
      "move": -1,
      "vertices": [
        {
          "x": 608,
          "y": 281
        },
        {
          "x": 604,
          "y": 349
        }
      ]
    },
    {
      "aState": "s1",
      "readSymbol": "#",
      "nState": "q1",
      "writeSymbol": "#",
      "move": -1,
      "vertices": []
    },
    {
      "aState": "q2",
      "readSymbol": "1",
      "nState": "q2",
      "writeSymbol": "1",
      "move": 1,
      "vertices": [
        {
          "x": 297,
          "y": 30
        },
        {
          "x": 397,
          "y": 34
        }
      ]
    },
    {
      "aState": "q2",
      "readSymbol": "0",
      "nState": "q2",
      "writeSymbol": "0",
      "move": 1,
      "vertices": [
        {
          "x": 297,
          "y": 30
        },
        {
          "x": 397,
          "y": 34
        }
      ]
    },
    {
      "aState": "q2",
      "readSymbol": "#",
      "nState": "s0",
      "writeSymbol": "#",
      "move": 1,
      "vertices": []
    },
    {
      "aState": "A0",
      "readSymbol": "i",
      "nState": "A0",
      "writeSymbol": "i",
      "move": -1,
      "vertices": [
        {
          "x": 37,
          "y": 39
        },
        {
          "x": 136,
          "y": 33
        }
      ]
    },
    {
      "aState": "A0",
      "readSymbol": "",
      "nState": "s0",
      "writeSymbol": "#",
      "move": 1,
      "vertices": []
    },
    {
      "aState": "s0",
      "readSymbol": "",
      "nState": "G0",
      "writeSymbol": "",
      "move": -1,
      "vertices": []
    },
    {
      "aState": "G0",
      "readSymbol": "#",
      "nState": "H",
      "writeSymbol": "",
      "move": -1,
      "vertices": []
    },
    {
      "aState": "G0",
      "readSymbol": "x",
      "nState": "G0",
      "writeSymbol": "",
      "move": -1,
      "vertices": [
        {
          "x": 143,
          "y": 266
        },
        {
          "x": 203,
          "y": 266
        }
      ]
    }
  ]
}