{
  "type": "Fsa",
  "states": [
    {
      "name": "qs",
      "x": 129,
      "y": 176
    },
    {
      "name": "qf",
      "x": 443,
      "y": 172
    }
  ],
  "finishStates": [
    "qf"
  ],
  "symbols": [
    "0",
    "1",
    "2",
    "3",
    "4",
    "5",
    "6",
    "7",
    "8",
    "9"
  ],
  "startState": "qs",
  "rules": [
    {
      "aState": "qs",
      "symbol": "0",
      "nState": "qf",
      "vertices": [
        {
          "x": 292,
          "y": 251
        }
      ]
    },
    {
      "aState": "qs",
      "symbol": "2",
      "nState": "qf",
      "vertices": [
        {
          "x": 292,
          "y": 251
        }
      ]
    },
    {
      "aState": "qs",
      "symbol": "4",
      "nState": "qf",
      "vertices": [
        {
          "x": 292,
          "y": 251
        }
      ]
    },
    {
      "aState": "qs",
      "symbol": "6",
      "nState": "qf",
      "vertices": [
        {
          "x": 292,
          "y": 251
        }
      ]
    },
    {
      "aState": "qs",
      "symbol": "8",
      "nState": "qf",
      "vertices": [
        {
          "x": 292,
          "y": 251
        }
      ]
    },
    {
      "aState": "qs",
      "symbol": "0",
      "nState": "qs",
      "vertices": [
        {
          "x": 70,
          "y": 74
        },
        {
          "x": 204,
          "y": 74
        }
      ]
    },
    {
      "aState": "qs",
      "symbol": "1",
      "nState": "qs",
      "vertices": [
        {
          "x": 70,
          "y": 74
        },
        {
          "x": 204,
          "y": 74
        }
      ]
    },
    {
      "aState": "qs",
      "symbol": "2",
      "nState": "qs",
      "vertices": [
        {
          "x": 70,
          "y": 74
        },
        {
          "x": 204,
          "y": 74
        }
      ]
    },
    {
      "aState": "qs",
      "symbol": "3",
      "nState": "qs",
      "vertices": [
        {
          "x": 70,
          "y": 74
        },
        {
          "x": 204,
          "y": 74
        }
      ]
    },
    {
      "aState": "qs",
      "symbol": "4",
      "nState": "qs",
      "vertices": [
        {
          "x": 70,
          "y": 74
        },
        {
          "x": 204,
          "y": 74
        }
      ]
    },
    {
      "aState": "qs",
      "symbol": "5",
      "nState": "qs",
      "vertices": [
        {
          "x": 70,
          "y": 74
        },
        {
          "x": 204,
          "y": 74
        }
      ]
    },
    {
      "aState": "qs",
      "symbol": "6",
      "nState": "qs",
      "vertices": [
        {
          "x": 70,
          "y": 74
        },
        {
          "x": 204,
          "y": 74
        }
      ]
    },
    {
      "aState": "qs",
      "symbol": "7",
      "nState": "qs",
      "vertices": [
        {
          "x": 70,
          "y": 74
        },
        {
          "x": 204,
          "y": 74
        }
      ]
    },
    {
      "aState": "qs",
      "symbol": "8",
      "nState": "qs",
      "vertices": [
        {
          "x": 70,
          "y": 74
        },
        {
          "x": 204,
          "y": 74
        }
      ]
    },
    {
      "aState": "qs",
      "symbol": "9",
      "nState": "qs",
      "vertices": [
        {
          "x": 70,
          "y": 74
        },
        {
          "x": 204,
          "y": 74
        }
      ]
    }
  ]
}